{
    "family": "Back-End",
    "containerDefinitions": [
        {
            "name": "Back-End",
            "image": "${IMAGE_NAME}",
            "portMappings": [
                {
                    "containerPort": 3000,
                    "hostPort": 3000,
                    "protocol": "tcp"
                }
            ],
            "cpu": 0,
            "essential": true,
            "memoryReservation": 256
        }
    ],
    "requiresCompatibilities": [
        "EC2"
    ]
}